@startuml
class ProdueixEsdeveniments {
-listeners : List<Listener>
+addEventListener(listener : Listener)
+creaEsdeveniment(event : int)
}
interface Listener {
+{abstract} notifyEvent(event : int)
}
class GuardaEsdeveniments {
+notifyEvent(event : int)
}
class MostraEsdeveniments {
+notifyEvent(event : int)
}
ProdueixEsdeveniments .> Listener
Listener <|.. GuardaEsdeveniments
Listener <|.. MostraEsdeveniments
note left of ProdueixEsdeveniments::creaEsdeveniment
  for (Listener listener : listeners)
    listener.notifyEvent(event);
end note
@enduml
