@startuml
interface Interfície {
+mètode()
}
class SuperClasse {
+mètode()
}
Interfície <|.. SubClasse
SuperClasse <|-- SubClasse
note left of SubClasse
La crida subClasse.mètode()
executaria el codi de SuperClasse.mètode().
end note
note left of Interfície::mètode
  Aquest mètode té un codi per defecte.
end note
@enduml
