@startuml
participant Principal as p
participant Jardi as j
participant Altibus as a
activate p
p->j: temps()
activate j
j->a: temps()
activate a
a->a: getAltura()
activate a
a<--a: 8
deactivate a

create Altibus as a2
a-->>a2: new Altibus()
activate a2
a<--a2: altibus
deactivate a2

create Llavor as ll
a-->>ll: new Llavor(altibus)
activate ll
a<--ll: llavor
deactivate ll
j<--a: llavor
deactivate a

j->a: isViva()
activate a
j<--a: true
deactivate a

j->a: escampa()
activate a
j<--a: 1
deactivate a

j->j: posaElement(llavor, 4)
activate j
j<--j: true
deactivate j

p<--j
deactivate j

p->j: toString()
activate j
j->a: getChar()
activate a
j<--a: 'O'
deactivate a
j->ll: getChar()
activate ll
j<--ll: '.'
deactivate ll
p<--j: String

@enduml
