@startuml
interface Volador
class Avio
class Ocell
class Gos
class Cotxe
abstract class Animal
abstract class Vehicle
Animal <|-- Ocell
Animal <|-- Gos
Volador <|.. Ocell
Volador <|.. Avio
Vehicle <|-- Avio
Vehicle <|-- Cotxe
@enduml
